//===== rAthena Script =======================================
//= Mapflag: Town.
//===== By: ==================================================
//= Epoque
//===== Current Version: =====================================
//= 1.1
//===== Compatible With: =====================================
//= rAthena Project
//===== Description: =========================================
//= Designates a map as a town, granting mailbox access.
//===== Additional Comments: =================================
//= 1.0 Initial script.
//= 1.1 Renewal split. [Euphy]
//============================================================

prontera	mapflag	town
izlude	mapflag	town
morocc	mapflag	town
geffen	mapflag	town
payon	mapflag	town
pay_arche	mapflag	town
alberta	mapflag	town
aldebaran	mapflag	town
yuno	mapflag	town
lighthalzen	mapflag	town
einbroch	mapflag	town
einbech	mapflag	town
comodo	mapflag	town
umbala	mapflag	town
amatsu	mapflag	town
gonryun	mapflag	town
ayothaya	mapflag	town
louyang	mapflag	town
hugel	mapflag	town
rachel	mapflag	town
veins	mapflag	town
